// Jest Snapshot v1, https://goo.gl/fbAQLP

exports[`matches snapshot 1`] = `
<div
  className="entry"
  onClick={[Function]}
>
  <div
    className="choice-wrapper"
  >
    <i
      className="material-icons"
    >
      image
    </i>
    <p>
      Dogs
    </p>
  </div>
  <div
    className="choice-wrapper"
  >
    <i
      className="material-icons"
    >
      volume_up
    </i>
    <p>
      Dogs
    </p>
  </div>
  <div
    className="choice-wrapper"
  >
    <i
      className="material-icons"
    >
      short_text
    </i>
    <p>
      Dogs
    </p>
  </div>
  <div
    className="timestamp-wrapper"
  >
    <p>
      just now
    </p>
  </div>
</div>
`;
